{
  "hosting": [
    {
      "target": "master",
      "public": "public",
      "rewrites": [
        {
          "source": "**/**",
          "function": "nextjs-server"
        }
      ]
    },
    {
      "target": "develop",
      "public": "public",
      "rewrites": [
        {
          "source": "**/**",
          "function": "nextjs-server"
        }
      ]
    },
    {
      "target": "storybook",
      "public": "storybook-static",
      "rewrites": [
        {
          "source": "**/**"
        }
      ]
    }
  ],
  "functions": {
    "source": ".",
    "ignore": [
      ".firebase/**",
      ".firebaserc",
      "firebase.json",
      "**/node_modules/**",
      "**/public/**"
    ]
  }
}